<?xml version="1.0" encoding="iso-8859-1"?>
<!-- Generator: Adobe Illustrator 19.0.0, SVG Export Plug-In . SVG Version: 6.00 Build 0)  -->
<svg version="1.1" id="Capa_1" xmlns="http://www.w3.org/2000/svg" xmlns:xlink="http://www.w3.org/1999/xlink" x="0px" y="0px"
	 viewBox="0 0 512 512" style="enable-background:new 0 0 512 512;" xml:space="preserve">
<path style="fill:#C5C7DA;" d="M472,52H40C17.944,52,0,69.944,0,92v328c0,22.056,17.944,40,40,40h432c22.056,0,40-17.944,40-40V92
	C512,69.944,494.056,52,472,52z"/>
<path style="fill:#8B8FB5;" d="M488,444H56c-22.056,0-40-17.944-40-40V76c0-6.922,1.769-13.438,4.877-19.123
	C8.449,63.67,0,76.867,0,92v328c0,22.056,17.944,40,40,40h432c15.133,0,28.33-8.449,35.123-20.877
	C501.438,442.231,494.922,444,488,444z"/>
<g>
	<path style="fill:#551577;" d="M96,420c-4.418,0-8-3.582-8-8V100c0-4.418,3.582-8,8-8s8,3.582,8,8v312
		C104,416.418,100.418,420,96,420z"/>
	<path style="fill:#551577;" d="M256,420c-4.418,0-8-3.582-8-8V100c0-4.418,3.582-8,8-8s8,3.582,8,8v312
		C264,416.418,260.418,420,256,420z"/>
	<path style="fill:#551577;" d="M416,420c-4.418,0-8-3.582-8-8V100c0-4.418,3.582-8,8-8s8,3.582,8,8v312
		C424,416.418,420.418,420,416,420z"/>
</g>
<path style="fill:#4296BD;" d="M128,204H64c-4.418,0-8,3.582-8,8v128c0,4.418,3.582,8,8,8h64c4.418,0,8-3.582,8-8V212
	C136,207.582,132.418,204,128,204z"/>
<path style="fill:#62D16F;" d="M288,124h-64c-4.418,0-8,3.582-8,8v128c0,4.418,3.582,8,8,8h64c4.418,0,8-3.582,8-8V132
	C296,127.582,292.418,124,288,124z"/>
<path style="fill:#F2A83B;" d="M448,244h-64c-4.418,0-8,3.582-8,8v128c0,4.418,3.582,8,8,8h64c4.418,0,8-3.582,8-8V252
	C456,247.582,452.418,244,448,244z"/>
<path style="fill:#86F28D;" d="M288,172h-64c-4.418,0-8,3.582-8,8v32c0,4.418,3.582,8,8,8h64c4.418,0,8-3.582,8-8v-32
	C296,175.582,292.418,172,288,172z"/>
<path style="fill:#60CDEA;" d="M128,252H64c-4.418,0-8,3.582-8,8v32c0,4.418,3.582,8,8,8h64c4.418,0,8-3.582,8-8v-32
	C136,255.582,132.418,252,128,252z"/>
<path style="fill:#F6D45A;" d="M448,292h-64c-4.418,0-8,3.582-8,8v32c0,4.418,3.582,8,8,8h64c4.418,0,8-3.582,8-8v-32
	C456,295.582,452.418,292,448,292z"/>
<path style="fill:#7074A3;" d="M176,348c-17.645,0-32,14.355-32,32s14.355,32,32,32s32-14.355,32-32S193.645,348,176,348z"/>
<path style="fill:#7A3C96;" d="M192.241,352.444l-21.898,21.898c-3.124,3.125-3.124,8.189,0,11.314
	c3.083,3.081,8.231,3.081,11.314,0l21.898-21.898C200.8,359.101,196.899,355.2,192.241,352.444z"/>
<path style="fill:#7074A3;" d="M336,348c-17.645,0-32,14.355-32,32s14.355,32,32,32s32-14.355,32-32S353.645,348,336,348z"/>
<path style="fill:#7A3C96;" d="M363.556,396.241l-17.898-17.898c-3.125-3.123-8.189-3.123-11.314,0
	c-3.124,3.125-3.124,8.189,0,11.314l17.898,17.898C356.899,404.8,360.8,400.899,363.556,396.241z"/>
<g>
	<path style="fill:#551577;" d="M177,324h-1c-4.418,0-8-3.582-8-8s3.582-8,8-8h1c4.418,0,8,3.582,8,8S181.418,324,177,324z"/>
	<path style="fill:#551577;" d="M177,292h-1c-4.418,0-8-3.582-8-8s3.582-8,8-8h1c4.418,0,8,3.582,8,8S181.418,292,177,292z"/>
	<path style="fill:#551577;" d="M336,324h-1c-4.418,0-8-3.582-8-8s3.582-8,8-8h1c4.418,0,8,3.582,8,8S340.418,324,336,324z"/>
	<path style="fill:#551577;" d="M336,292h-1c-4.418,0-8-3.582-8-8s3.582-8,8-8h1c4.418,0,8,3.582,8,8S340.418,292,336,292z"/>
</g>
<g>
</g>
<g>
</g>
<g>
</g>
<g>
</g>
<g>
</g>
<g>
</g>
<g>
</g>
<g>
</g>
<g>
</g>
<g>
</g>
<g>
</g>
<g>
</g>
<g>
</g>
<g>
</g>
<g>
</g>
</svg>
